
E:\TFS\DEV2\Application\DataBase\StoredProcedures>sqlcmd -S 10.0.2.216 -d FP_UAT_Rel2_WS -i ".\dbo.spGetReportPREAircraftCalendar1ExportInformation.StoredProcedure.sql" 

E:\TFS\DEV2\Application\DataBase\StoredProcedures>sqlcmd -S 10.0.2.216 -d FP_UAT_Rel2_WS -i ".\dbo.spGetReportPREAircraftCalendar1Information.StoredProcedure.sql" 

E:\TFS\DEV2\Application\DataBase\StoredProcedures>sqlcmd -S 10.0.2.216 -d FP_UAT_Rel2_WS -i ".\dbo.spGetReportPREAircraftCalendar1MainInformation.StoredProcedure.sql" 

E:\TFS\DEV2\Application\DataBase\StoredProcedures>sqlcmd -S 10.0.2.216 -d FP_UAT_Rel2_WS -i ".\dbo.spGetReportPREAircraftCalendar1MhtmlInformation.StoredProcedure.sql" 

E:\TFS\DEV2\Application\DataBase\StoredProcedures>sqlcmd -S 10.0.2.216 -d FP_UAT_Rel2_WS -i ".\dbo.spGetReportPREAircraftCalendar2ExportInformation.StoredProcedure.sql" 

E:\TFS\DEV2\Application\DataBase\StoredProcedures>sqlcmd -S 10.0.2.216 -d FP_UAT_Rel2_WS -i ".\dbo.spGetReportPREAircraftCalendar2Information.StoredProcedure.sql" 

E:\TFS\DEV2\Application\DataBase\StoredProcedures>sqlcmd -S 10.0.2.216 -d FP_UAT_Rel2_WS -i ".\dbo.spGetReportPREAircraftCalendar2MhtmlInformation.StoredProcedure.sql" 

E:\TFS\DEV2\Application\DataBase\StoredProcedures>sqlcmd -S 10.0.2.216 -d FP_UAT_Rel2_WS -i ".\dbo.spGetReportPREAircraftCalendar3ExportInformation.StoredProcedure.sql" 

E:\TFS\DEV2\Application\DataBase\StoredProcedures>sqlcmd -S 10.0.2.216 -d FP_UAT_Rel2_WS -i ".\dbo.spGetReportPREAircraftCalendar3FBOInformation.StoredProcedure.sql" 

E:\TFS\DEV2\Application\DataBase\StoredProcedures>sqlcmd -S 10.0.2.216 -d FP_UAT_Rel2_WS -i ".\dbo.spGetReportPREAircraftCalendar3Information.StoredProcedure.sql" 

E:\TFS\DEV2\Application\DataBase\StoredProcedures>sqlcmd -S 10.0.2.216 -d FP_UAT_Rel2_WS -i ".\dbo.spGetReportPREAircraftCalendar3MhtmlInformation.StoredProcedure.sql" 

E:\TFS\DEV2\Application\DataBase\StoredProcedures>sqlcmd -S 10.0.2.216 -d FP_UAT_Rel2_WS -i ".\dbo.spGetReportPREAircraftCalendar4ExportInformation.StoredProcedure.sql" 

E:\TFS\DEV2\Application\DataBase\StoredProcedures>sqlcmd -S 10.0.2.216 -d FP_UAT_Rel2_WS -i ".\dbo.spGetReportPREAircraftCalendar4Information.StoredProcedure.sql" 

E:\TFS\DEV2\Application\DataBase\StoredProcedures>sqlcmd -S 10.0.2.216 -d FP_UAT_Rel2_WS -i ".\dbo.spGetReportPREAircraftCalendar4MhtmlInformation.StoredProcedure.sql" 

E:\TFS\DEV2\Application\DataBase\StoredProcedures>sqlcmd -S 10.0.2.216 -d FP_UAT_Rel2_WS -i ".\dbo.spGetReportPREAircraftCalender1Information.StoredProcedure.sql" 

E:\TFS\DEV2\Application\DataBase\StoredProcedures>sqlcmd -S 10.0.2.216 -d FP_UAT_Rel2_WS -i ".\dbo.spGetReportPREAircraftStatusExportInformation.StoredProcedure.sql" 

E:\TFS\DEV2\Application\DataBase\StoredProcedures>sqlcmd -S 10.0.2.216 -d FP_UAT_Rel2_WS -i ".\dbo.spGetReportPREAircraftStatusInformation.StoredProcedure.sql" 

E:\TFS\DEV2\Application\DataBase\StoredProcedures>sqlcmd -S 10.0.2.216 -d FP_UAT_Rel2_WS -i ".\dbo.spGetReportPREAircraftStatusMhtmlInformation.StoredProcedure.sql" 

E:\TFS\DEV2\Application\DataBase\StoredProcedures>sqlcmd -S 10.0.2.216 -d FP_UAT_Rel2_WS -i ".\dbo.spGetReportPREColorLegendAircraftInformation.StoredProcedure.sql" 

E:\TFS\DEV2\Application\DataBase\StoredProcedures>sqlcmd -S 10.0.2.216 -d FP_UAT_Rel2_WS -i ".\dbo.spGetReportPREColorLegendCrewInformation.StoredProcedure.sql" 

E:\TFS\DEV2\Application\DataBase\StoredProcedures>sqlcmd -S 10.0.2.216 -d FP_UAT_Rel2_WS -i ".\dbo.spGetReportPREColorLegendFlightCategoryInformation.StoredProcedure.sql" 

E:\TFS\DEV2\Application\DataBase\StoredProcedures>sqlcmd -S 10.0.2.216 -d FP_UAT_Rel2_WS -i ".\dbo.spGetReportPREComponentStatus.StoredProcedure.sql" 

E:\TFS\DEV2\Application\DataBase\StoredProcedures>sqlcmd -S 10.0.2.216 -d FP_UAT_Rel2_WS -i ".\dbo.spGetReportPRECorporateItineraryExportInformation.StoredProcedure.sql" 

E:\TFS\DEV2\Application\DataBase\StoredProcedures>sqlcmd -S 10.0.2.216 -d FP_UAT_Rel2_WS -i ".\dbo.spGetReportPRECorporateItineraryInformation.StoredProcedure.sql" 

E:\TFS\DEV2\Application\DataBase\StoredProcedures>sqlcmd -S 10.0.2.216 -d FP_UAT_Rel2_WS -i ".\dbo.spGetReportPRECorporateItineraryInformation1.StoredProcedure.sql" 

E:\TFS\DEV2\Application\DataBase\StoredProcedures>sqlcmd -S 10.0.2.216 -d FP_UAT_Rel2_WS -i ".\dbo.spGetReportPRECorporateItineraryMainInformation.StoredProcedure.sql" 

E:\TFS\DEV2\Application\DataBase\StoredProcedures>sqlcmd -S 10.0.2.216 -d FP_UAT_Rel2_WS -i ".\dbo.spGetReportPRECorporateItineraryMhtmlInformation.StoredProcedure.sql" 

E:\TFS\DEV2\Application\DataBase\StoredProcedures>sqlcmd -S 10.0.2.216 -d FP_UAT_Rel2_WS -i ".\dbo.spGetReportPRECorporateItinerarySubInformation.StoredProcedure.sql" 

E:\TFS\DEV2\Application\DataBase\StoredProcedures>sqlcmd -S 10.0.2.216 -d FP_UAT_Rel2_WS -i ".\dbo.spGetReportPRECorporateItinerarySubInformation1.StoredProcedure.sql" 

E:\TFS\DEV2\Application\DataBase\StoredProcedures>sqlcmd -S 10.0.2.216 -d FP_UAT_Rel2_WS -i ".\dbo.spGetReportPRECorporateItinerarySubInformation2.StoredProcedure.sql" 

E:\TFS\DEV2\Application\DataBase\StoredProcedures>sqlcmd -S 10.0.2.216 -d FP_UAT_Rel2_WS -i ".\dbo.spGetReportPRECrewCalenderCrewExportInformation.StoredProcedure.sql" 

E:\TFS\DEV2\Application\DataBase\StoredProcedures>sqlcmd -S 10.0.2.216 -d FP_UAT_Rel2_WS -i ".\dbo.spGetReportPRECrewCalenderCrewInformation.StoredProcedure.sql" 

E:\TFS\DEV2\Application\DataBase\StoredProcedures>sqlcmd -S 10.0.2.216 -d FP_UAT_Rel2_WS -i ".\dbo.spGetReportPRECrewCalenderCrewMhtmlInformation.StoredProcedure.sql" 

E:\TFS\DEV2\Application\DataBase\StoredProcedures>sqlcmd -S 10.0.2.216 -d FP_UAT_Rel2_WS -i ".\dbo.spGetReportPRECrewCalenderDateExportInformation.StoredProcedure.sql" 

E:\TFS\DEV2\Application\DataBase\StoredProcedures>sqlcmd -S 10.0.2.216 -d FP_UAT_Rel2_WS -i ".\dbo.spGetReportPRECrewCalenderDateInformatio.StoredProcedure.sql" 

E:\TFS\DEV2\Application\DataBase\StoredProcedures>sqlcmd -S 10.0.2.216 -d FP_UAT_Rel2_WS -i ".\dbo.spGetReportPRECrewCalenderDateInformation.StoredProcedure.sql" 

E:\TFS\DEV2\Application\DataBase\StoredProcedures>sqlcmd -S 10.0.2.216 -d FP_UAT_Rel2_WS -i ".\dbo.spGetReportPRECrewCalenderDateMhtmlInformation.StoredProcedure.sql" 

E:\TFS\DEV2\Application\DataBase\StoredProcedures>sqlcmd -S 10.0.2.216 -d FP_UAT_Rel2_WS -i ".\dbo.spGetReportPRECustomerProfile.StoredProcedure.sql" 

E:\TFS\DEV2\Application\DataBase\StoredProcedures>sqlcmd -S 10.0.2.216 -d FP_UAT_Rel2_WS -i ".\dbo.spGetReportPREDailybaseActivity1ExportInformation.StoredProcedure.sql" 

E:\TFS\DEV2\Application\DataBase\StoredProcedures>sqlcmd -S 10.0.2.216 -d FP_UAT_Rel2_WS -i ".\dbo.spGetReportPREDailybaseActivity1Information.StoredProcedure.sql" 

E:\TFS\DEV2\Application\DataBase\StoredProcedures>sqlcmd -S 10.0.2.216 -d FP_UAT_Rel2_WS -i ".\dbo.spGetReportPREDailybaseActivity1MhtmlInformation.StoredProcedure.sql" 

E:\TFS\DEV2\Application\DataBase\StoredProcedures>sqlcmd -S 10.0.2.216 -d FP_UAT_Rel2_WS -i ".\dbo.spGetReportPREDailybaseActivity2ExportInformation.StoredProcedure.sql" 

E:\TFS\DEV2\Application\DataBase\StoredProcedures>sqlcmd -S 10.0.2.216 -d FP_UAT_Rel2_WS -i ".\dbo.spGetReportPREDailybaseActivity2Information.StoredProcedure.sql" 

E:\TFS\DEV2\Application\DataBase\StoredProcedures>sqlcmd -S 10.0.2.216 -d FP_UAT_Rel2_WS -i ".\dbo.spGetReportPREDailybaseActivity2MhtmlInformation.StoredProcedure.sql" 

E:\TFS\DEV2\Application\DataBase\StoredProcedures>sqlcmd -S 10.0.2.216 -d FP_UAT_Rel2_WS -i ".\dbo.spGetReportPREDailybaseActivity2Sub.StoredProcedure.sql" 

E:\TFS\DEV2\Application\DataBase\StoredProcedures>sqlcmd -S 10.0.2.216 -d FP_UAT_Rel2_WS -i ".\dbo.spGetReportPREDestinationExportInformation.StoredProcedure.sql" 

E:\TFS\DEV2\Application\DataBase\StoredProcedures>sqlcmd -S 10.0.2.216 -d FP_UAT_Rel2_WS -i ".\dbo.spGetReportPREDestinationInformation.StoredProcedure.sql" 

E:\TFS\DEV2\Application\DataBase\StoredProcedures>sqlcmd -S 10.0.2.216 -d FP_UAT_Rel2_WS -i ".\dbo.spGetReportPREDestinationMhtmlInformation.StoredProcedure.sql" 

E:\TFS\DEV2\Application\DataBase\StoredProcedures>sqlcmd -S 10.0.2.216 -d FP_UAT_Rel2_WS -i ".\dbo.spGetReportPreferencesInformation.StoredProcedure.sql" 

E:\TFS\DEV2\Application\DataBase\StoredProcedures>sqlcmd -S 10.0.2.216 -d FP_UAT_Rel2_WS -i ".\dbo.spGetReportPREFleetCalendarAircraftExportInformation.StoredProcedure.sql" 

E:\TFS\DEV2\Application\DataBase\StoredProcedures>sqlcmd -S 10.0.2.216 -d FP_UAT_Rel2_WS -i ".\dbo.spGetReportPREFleetCalendarAircraftInformation.StoredProcedure.sql" 

E:\TFS\DEV2\Application\DataBase\StoredProcedures>sqlcmd -S 10.0.2.216 -d FP_UAT_Rel2_WS -i ".\dbo.spGetReportPREFleetCalendarAircraftMhtmlInformation.StoredProcedure.sql" 

E:\TFS\DEV2\Application\DataBase\StoredProcedures>sqlcmd -S 10.0.2.216 -d FP_UAT_Rel2_WS -i ".\dbo.spGetReportPREFleetCalendarDateExportInformation.StoredProcedure.sql" 

E:\TFS\DEV2\Application\DataBase\StoredProcedures>sqlcmd -S 10.0.2.216 -d FP_UAT_Rel2_WS -i ".\dbo.spGetReportPREFleetCalendarDateInformation.StoredProcedure.sql" 

E:\TFS\DEV2\Application\DataBase\StoredProcedures>sqlcmd -S 10.0.2.216 -d FP_UAT_Rel2_WS -i ".\dbo.spGetReportPREFleetCalendarDateMhtmlInformation.StoredProcedure.sql" 

E:\TFS\DEV2\Application\DataBase\StoredProcedures>sqlcmd -S 10.0.2.216 -d FP_UAT_Rel2_WS -i ".\dbo.spGetReportPREFleetScheduleAircraftExportInformation.StoredProcedure.sql" 

E:\TFS\DEV2\Application\DataBase\StoredProcedures>sqlcmd -S 10.0.2.216 -d FP_UAT_Rel2_WS -i ".\dbo.spGetReportPREFleetScheduleAndPaxInfoDateInformation.StoredProcedure.sql" 

E:\TFS\DEV2\Application\DataBase\StoredProcedures>sqlcmd -S 10.0.2.216 -d FP_UAT_Rel2_WS -i ".\dbo.spGetReportPREFleetScheduleAndPaxInfoDatExportInformation.StoredProcedure.sql" 

E:\TFS\DEV2\Application\DataBase\StoredProcedures>sqlcmd -S 10.0.2.216 -d FP_UAT_Rel2_WS -i ".\dbo.spGetReportPREFleetScheduleDateAircraftExportInformation.StoredProcedure.sql" 

E:\TFS\DEV2\Application\DataBase\StoredProcedures>sqlcmd -S 10.0.2.216 -d FP_UAT_Rel2_WS -i ".\dbo.spGetReportPREFleetScheduleDateAircraftInformation.StoredProcedure.sql" 

E:\TFS\DEV2\Application\DataBase\StoredProcedures>sqlcmd -S 10.0.2.216 -d FP_UAT_Rel2_WS -i ".\dbo.spGetReportPREFleetScheduleDateAircraftMhtmlInformation.StoredProcedure.sql" 

E:\TFS\DEV2\Application\DataBase\StoredProcedures>sqlcmd -S 10.0.2.216 -d FP_UAT_Rel2_WS -i ".\dbo.spGetReportPREFleetScheduleDateExportInformation.StoredProcedure.sql" 

E:\TFS\DEV2\Application\DataBase\StoredProcedures>sqlcmd -S 10.0.2.216 -d FP_UAT_Rel2_WS -i ".\dbo.spGetReportPREFlightFollowingLogExportInformation.StoredProcedure.sql" 

E:\TFS\DEV2\Application\DataBase\StoredProcedures>sqlcmd -S 10.0.2.216 -d FP_UAT_Rel2_WS -i ".\dbo.spGetReportPREFlightFollowingLogInformation.StoredProcedure.sql" 

E:\TFS\DEV2\Application\DataBase\StoredProcedures>sqlcmd -S 10.0.2.216 -d FP_UAT_Rel2_WS -i ".\dbo.spGetReportPREFlightFollowingLogMhtmlInformation.StoredProcedure.sql" 

E:\TFS\DEV2\Application\DataBase\StoredProcedures>sqlcmd -S 10.0.2.216 -d FP_UAT_Rel2_WS -i ".\dbo.spGetReportPREGADeskInformation.StoredProcedure.sql" 

E:\TFS\DEV2\Application\DataBase\StoredProcedures>sqlcmd -S 10.0.2.216 -d FP_UAT_Rel2_WS -i ".\dbo.spGetReportPREHoursLandingsProjectionExportInformation.StoredProcedure.sql" 

E:\TFS\DEV2\Application\DataBase\StoredProcedures>sqlcmd -S 10.0.2.216 -d FP_UAT_Rel2_WS -i ".\dbo.spGetReportPREHoursLandingsProjectionInformation.StoredProcedure.sql" 

E:\TFS\DEV2\Application\DataBase\StoredProcedures>sqlcmd -S 10.0.2.216 -d FP_UAT_Rel2_WS -i ".\dbo.spGetReportPREHoursLandingsProjectionMhtmlInformation.StoredProcedure.sql" 

E:\TFS\DEV2\Application\DataBase\StoredProcedures>sqlcmd -S 10.0.2.216 -d FP_UAT_Rel2_WS -i ".\dbo.spGetReportPRELocatorAirportInformation.StoredProcedure.sql" 

E:\TFS\DEV2\Application\DataBase\StoredProcedures>sqlcmd -S 10.0.2.216 -d FP_UAT_Rel2_WS -i ".\dbo.spGetReportPREMaintenanceAlerts.StoredProcedure.sql" 

E:\TFS\DEV2\Application\DataBase\StoredProcedures>sqlcmd -S 10.0.2.216 -d FP_UAT_Rel2_WS -i ".\dbo.spGetReportPREMaintenanceAlertssub.StoredProcedure.sql" 

E:\TFS\DEV2\Application\DataBase\StoredProcedures>sqlcmd -S 10.0.2.216 -d FP_UAT_Rel2_WS -i ".\dbo.spGetReportPREMonthlyCrewCalendarExportInformation.StoredProcedure.sql" 

E:\TFS\DEV2\Application\DataBase\StoredProcedures>sqlcmd -S 10.0.2.216 -d FP_UAT_Rel2_WS -i ".\dbo.spGetReportPREMonthlyCrewCalendarInformation.StoredProcedure.sql" 

E:\TFS\DEV2\Application\DataBase\StoredProcedures>sqlcmd -S 10.0.2.216 -d FP_UAT_Rel2_WS -i ".\dbo.spGetReportPREMonthlyCrewCalendarMhtmlInformation.StoredProcedure.sql" 

E:\TFS\DEV2\Application\DataBase\StoredProcedures>sqlcmd -S 10.0.2.216 -d FP_UAT_Rel2_WS -i ".\dbo.spGetReportPREMonthlyFleetCalendarExportInformation.StoredProcedure.sql" 

E:\TFS\DEV2\Application\DataBase\StoredProcedures>sqlcmd -S 10.0.2.216 -d FP_UAT_Rel2_WS -i ".\dbo.spGetReportPREMonthlyFleetCalendarInformation.StoredProcedure.sql" 

E:\TFS\DEV2\Application\DataBase\StoredProcedures>sqlcmd -S 10.0.2.216 -d FP_UAT_Rel2_WS -i ".\dbo.spGetReportPREPassengerItineraryExportInformation.StoredProcedure.sql" 

E:\TFS\DEV2\Application\DataBase\StoredProcedures>sqlcmd -S 10.0.2.216 -d FP_UAT_Rel2_WS -i ".\dbo.spGetReportPREPassengerItineraryInformation.StoredProcedure.sql" 

E:\TFS\DEV2\Application\DataBase\StoredProcedures>sqlcmd -S 10.0.2.216 -d FP_UAT_Rel2_WS -i ".\dbo.spGetReportPREPassengerItineraryMhtmlInformation.StoredProcedure.sql" 

E:\TFS\DEV2\Application\DataBase\StoredProcedures>sqlcmd -S 10.0.2.216 -d FP_UAT_Rel2_WS -i ".\dbo.spGetReportPREPassengerItinerarySubInformation.StoredProcedure.sql" 

E:\TFS\DEV2\Application\DataBase\StoredProcedures>sqlcmd -S 10.0.2.216 -d FP_UAT_Rel2_WS -i ".\dbo.spGetReportPRESchedueCalendarBusinessWeekInformation.StoredProcedure.sql" 

E:\TFS\DEV2\Application\DataBase\StoredProcedures>sqlcmd -S 10.0.2.216 -d FP_UAT_Rel2_WS -i ".\dbo.spGetReportPRESchedueCalendarDayInformation.StoredProcedure.sql" 

E:\TFS\DEV2\Application\DataBase\StoredProcedures>sqlcmd -S 10.0.2.216 -d FP_UAT_Rel2_WS -i ".\dbo.spGetReportPRESchedueCalendarMonthlyInformation.StoredProcedure.sql" 

E:\TFS\DEV2\Application\DataBase\StoredProcedures>sqlcmd -S 10.0.2.216 -d FP_UAT_Rel2_WS -i ".\dbo.spGetReportPRESchedueCalendarMonthlyPlannerCrewInformation.StoredProcedure.sql" 

E:\TFS\DEV2\Application\DataBase\StoredProcedures>sqlcmd -S 10.0.2.216 -d FP_UAT_Rel2_WS -i ".\dbo.spGetReportPRESchedueCalendarMonthlyPlannerFleetInformation.StoredProcedure.sql" 

E:\TFS\DEV2\Application\DataBase\StoredProcedures>sqlcmd -S 10.0.2.216 -d FP_UAT_Rel2_WS -i ".\dbo.spGetReportPRESchedueCalendarMonthlySubInformation.StoredProcedure.sql" 

E:\TFS\DEV2\Application\DataBase\StoredProcedures>sqlcmd -S 10.0.2.216 -d FP_UAT_Rel2_WS -i ".\dbo.spGetReportPRESchedueCalendarWeeklyCorportateInformation.StoredProcedure.sql" 

E:\TFS\DEV2\Application\DataBase\StoredProcedures>sqlcmd -S 10.0.2.216 -d FP_UAT_Rel2_WS -i ".\dbo.spGetReportPRESchedueCalendarWeeklyCrewInformation.StoredProcedure.sql" 

E:\TFS\DEV2\Application\DataBase\StoredProcedures>sqlcmd -S 10.0.2.216 -d FP_UAT_Rel2_WS -i ".\dbo.spGetReportPRESchedueCalendarWeeklyFleetInformation.StoredProcedure.sql" 

E:\TFS\DEV2\Application\DataBase\StoredProcedures>sqlcmd -S 10.0.2.216 -d FP_UAT_Rel2_WS -i ".\dbo.spGetReportPRESchedueCalendarWeeklyInformation.StoredProcedure.sql" 

E:\TFS\DEV2\Application\DataBase\StoredProcedures>sqlcmd -S 10.0.2.216 -d FP_UAT_Rel2_WS -i ".\dbo.spGetReportPREStandardServieFormInformation.StoredProcedure.sql" 

E:\TFS\DEV2\Application\DataBase\StoredProcedures>sqlcmd -S 10.0.2.216 -d FP_UAT_Rel2_WS -i ".\dbo.spGetReportPREStandardServieFormSubInformation.StoredProcedure.sql" 

E:\TFS\DEV2\Application\DataBase\StoredProcedures>sqlcmd -S 10.0.2.216 -d FP_UAT_Rel2_WS -i ".\dbo.spGetReportPRETripCostQuote.StoredProcedure.sql" 

E:\TFS\DEV2\Application\DataBase\StoredProcedures>sqlcmd -S 10.0.2.216 -d FP_UAT_Rel2_WS -i ".\dbo.spGetReportPRETripSheetAlertsExportInformation.StoredProcedure.sql" 

E:\TFS\DEV2\Application\DataBase\StoredProcedures>sqlcmd -S 10.0.2.216 -d FP_UAT_Rel2_WS -i ".\dbo.spGetReportPRETripSheetAlertsInformation.StoredProcedure.sql" 

E:\TFS\DEV2\Application\DataBase\StoredProcedures>sqlcmd -S 10.0.2.216 -d FP_UAT_Rel2_WS -i ".\dbo.spGetReportPRETripSheetAlertsMhtmlInformation.StoredProcedure.sql" 

E:\TFS\DEV2\Application\DataBase\StoredProcedures>sqlcmd -S 10.0.2.216 -d FP_UAT_Rel2_WS -i ".\dbo.spGetReportPRETripsheetAuditExportInformation.StoredProcedure.sql" 

E:\TFS\DEV2\Application\DataBase\StoredProcedures>sqlcmd -S 10.0.2.216 -d FP_UAT_Rel2_WS -i ".\dbo.spGetReportPRETripsheetAuditInformation.StoredProcedure.sql" 

E:\TFS\DEV2\Application\DataBase\StoredProcedures>sqlcmd -S 10.0.2.216 -d FP_UAT_Rel2_WS -i ".\dbo.spGetReportPRETripSheetCancellation.StoredProcedure.sql" 

E:\TFS\DEV2\Application\DataBase\StoredProcedures>sqlcmd -S 10.0.2.216 -d FP_UAT_Rel2_WS -i ".\dbo.spGetReportPRETripSheetCancellationLeg.StoredProcedure.sql" 

E:\TFS\DEV2\Application\DataBase\StoredProcedures>sqlcmd -S 10.0.2.216 -d FP_UAT_Rel2_WS -i ".\dbo.spGetReportPRETripsheetValidationBatchReport.StoredProcedure.sql" 

E:\TFS\DEV2\Application\DataBase\StoredProcedures>sqlcmd -S 10.0.2.216 -d FP_UAT_Rel2_WS -i ".\dbo.spGetReportPreUVTripForm.StoredProcedure.sql" 

E:\TFS\DEV2\Application\DataBase\StoredProcedures>sqlcmd -S 10.0.2.216 -d FP_UAT_Rel2_WS -i ".\dbo.spGetReportPREWeeklyCalendar1ExportInformation.StoredProcedure.sql" 

E:\TFS\DEV2\Application\DataBase\StoredProcedures>sqlcmd -S 10.0.2.216 -d FP_UAT_Rel2_WS -i ".\dbo.spGetReportPREWeeklyCalendar1ListInformation.StoredProcedure.sql" 

E:\TFS\DEV2\Application\DataBase\StoredProcedures>sqlcmd -S 10.0.2.216 -d FP_UAT_Rel2_WS -i ".\dbo.spGetReportPREWeeklyCalendar1MainInformation.StoredProcedure.sql" 

E:\TFS\DEV2\Application\DataBase\StoredProcedures>sqlcmd -S 10.0.2.216 -d FP_UAT_Rel2_WS -i ".\dbo.spGetReportPREWeeklyCalendar1MhtmlInformation.StoredProcedure.sql" 

E:\TFS\DEV2\Application\DataBase\StoredProcedures>sqlcmd -S 10.0.2.216 -d FP_UAT_Rel2_WS -i ".\dbo.spGetReportPREWeeklyCalendar1SubInformation.StoredProcedure.sql" 

E:\TFS\DEV2\Application\DataBase\StoredProcedures>sqlcmd -S 10.0.2.216 -d FP_UAT_Rel2_WS -i ".\dbo.spGetReportPREWeeklyCalendarAirportInformation.StoredProcedure.sql" 

E:\TFS\DEV2\Application\DataBase\StoredProcedures>sqlcmd -S 10.0.2.216 -d FP_UAT_Rel2_WS -i ".\dbo.spGetReportPREWeeklyCalendarCrewInformation.StoredProcedure.sql" 

E:\TFS\DEV2\Application\DataBase\StoredProcedures>sqlcmd -S 10.0.2.216 -d FP_UAT_Rel2_WS -i ".\dbo.spGetReportPREWeeklyCalendarRequestorInformation.StoredProcedure.sql" 
